"{\"count\":203,\"next\":\"https://ll.thespacedevs.com/2.0.0/launch/upcoming/?limit=10&offset=10\",\"previous\":null,\"results\":[{\"id\":\"861795c5-e694-4d3e-b22f-a356a31cd5d8\",\"url\":\"https://ll.thespacedevs.com/2.2.0/launch/861795c5-e694-4d3e-b22f-a356a31cd5d8/\",\"launch_library_id\":null,\"slug\":\"falcon-9-block-5-starlink-group-4-9\",\"name\":\"Falcon 9 Block 5 | Starlink Group 4-9\",\"status\":{\"id\":3,\"name\":\"Success\"},\"net\":\"2022-03-03T14:25:00Z\",\"window_end\":\"2022-03-03T14:25:00Z\",\"window_start\":\"2022-03-03T14:25:00Z\",\"inhold\":false,\"tbdtime\":false,\"tbddate\":false,\"probability\":90,\"holdreason\":\"\",\"failreason\":\"\",\"hashtag\":null,\"launch_service_provider\":{\"id\":121,\"url\":\"https://ll.thespacedevs.com/2.2.0/agencies/121/\",\"name\":\"SpaceX\",\"type\":\"Commercial\"},\"rocket\":{\"id\":2520,\"configuration\":{\"id\":164,\"launch_library_id\":188,\"url\":\"https://ll.thespacedevs.com/2.2.0/config/launcher/164/\",\"name\":\"Falcon 9\",\"family\":\"Falcon\",\"full_name\":\"Falcon 9 Block 5\",\"variant\":\"Block 5\"}},\"mission\":{\"id\":5956,\"launch_library_id\":null,\"name\":\"Starlink Group 4-9\",\"description\":\"A batch of 47 satellites for Starlink mega-constellation - SpaceX's project for space-based Internet communication system.\",\"launch_designator\":null,\"type\":\"Communications\",\"orbit\":{\"id\":8,\"name\":\"Low Earth Orbit\",\"abbrev\":\"LEO\"}},\"pad\":{\"id\":87,\"url\":\"https://ll.thespacedevs.com/2.2.0/pad/87/\",\"agency_id\":null,\"name\":\"Launch Complex 39A\",\"info_url\":null,\"wiki_url\":\"https://en.wikipedia.org/wiki/Kennedy_Space_Center_Launch_Complex_39#Launch_Pad_39A\",\"map_url\":\"http://maps.google.com/maps?q=28.608+N,+80.604+W\",\"latitude\":\"28.60822681\",\"longitude\":\"-80.60428186\",\"location\":{\"id\":27,\"url\":\"https://ll.thespacedevs.com/2.2.0/location/27/\",\"name\":\"Kennedy Space Center, FL, USA\",\"country_code\":\"USA\",\"map_image\":\"https://spacelaunchnow-prod-east.nyc3.digitaloceanspaces.com/media/launch_images/location_27_20200803142447.jpg\",\"total_launch_count\":197,\"total_landing_count\":0},\"map_image\":\"https://spacelaunchnow-prod-east.nyc3.digitaloceanspaces.com/media/launch_images/pad_87_20200803143537.jpg\",\"total_launch_count\":140},\"webcast_live\":true,\"image\":\"https://spacelaunchnow-prod-east.nyc3.digitaloceanspaces.com/media/launch_images/falcon2520925_image_20220221183421.png\",\"infographic\":null,\"program\":[]},{\"id\":\"445650f9-daeb-4521-95ab-8197c3b53ffc\",\"url\":\"https://ll.thespacedevs.com/2.2.0/launch/445650f9-daeb-4521-95ab-8197c3b53ffc/\",\"launch_library_id\":null,\"slug\":\"long-march-2cyz-1s-yinhe-1-x6\",\"name\":\"Long March 2C/YZ-1S | Yinhe-1 (x6)\",\"status\":{\"id\":1,\"name\":\"Go\"},\"net\":\"2022-03-05T06:00:00Z\",\"window_end\":\"2022-03-05T06:25:00Z\",\"window_start\":\"2022-03-05T05:50:00Z\",\"inhold\":false,\"tbdtime\":false,\"tbddate\":false,\"probability\":null,\"holdreason\":\"\",\"failreason\":\"\",\"hashtag\":null,\"launch_service_provider\":{\"id\":88,\"url\":\"https://ll.thespacedevs.com/2.2.0/agencies/88/\",\"name\":\"China Aerospace Science and Technology Corporation\",\"type\":\"Government\"},\"rocket\":{\"id\":2536,\"configuration\":{\"id\":156,\"launch_library_id\":192,\"url\":\"https://ll.thespacedevs.com/2.2.0/config/launcher/156/\",\"name\":\"Long March 2C/YZ-1S\",\"family\":\"Long March 2\",\"full_name\":\"Long March 2C/YZ-1S\",\"variant\":\"C/YZ-1S\"}},\"mission\":{\"id\":5963,\"launch_library_id\":null,\"name\":\"Yinhe-1 (x6)\",\"description\":\"The first flight dedicated to the launch of the Internet constellation of GalaxySpace, a private company, planning the total deployment of more than 1000 satellites in earth orbit. The satellites broadcast in 5G, with a capacity of 10 Gb.\",\"launch_designator\":null,\"type\":\"Communications\",\"orbit\":{\"id\":8,\"name\":\"Low Earth Orbit\",\"abbrev\":\"LEO\"}},\"pad\":{\"id\":66,\"url\":\"https://ll.thespacedevs.com/2.2.0/pad/66/\",\"agency_id\":17,\"name\":\"Launch Complex 3 ( LC-3 ) ( LA-1 )\",\"info_url\":null,\"wiki_url\":\"https://en.wikipedia.org/wiki/Xichang_Satellite_Launch_Center\",\"map_url\":\"https://www.google.com/maps/?q=28.246017,102.026556\",\"latitude\":\"28.246017\",\"longitude\":\"102.026556\",\"location\":{\"id\":16,\"url\":\"https://ll.thespacedevs.com/2.2.0/location/16/\",\"name\":\"Xichang Satellite Launch Center, People's Republic of China\",\"country_code\":\"CHN\",\"map_image\":\"https://spacelaunchnow-prod-east.nyc3.digitaloceanspaces.com/media/launch_images/location_16_20200803142513.jpg\",\"total_launch_count\":167,\"total_landing_count\":0},\"map_image\":\"https://spacelaunchnow-prod-east.nyc3.digitaloceanspaces.com/media/launch_images/pad_66_20200803143611.jpg\",\"total_launch_count\":59},\"webcast_live\":false,\"image\":\"https://spacelaunchnow-prod-east.nyc3.digitaloceanspaces.com/media/launcher_images/long_march_2c__image_20210908193511.jpeg\",\"infographic\":null,\"program\":[]},{\"id\":\"d8c7fbe0-6a32-42dc-8c24-f1c632adc8b5\",\"url\":\"https://ll.thespacedevs.com/2.2.0/launch/d8c7fbe0-6a32-42dc-8c24-f1c632adc8b5/\",\"launch_library_id\":null,\"slug\":\"falcon-9-block-5-starlink-group-4-10\",\"name\":\"Falcon 9 Block 5 | Starlink Group 4-10\",\"status\":{\"id\":2,\"name\":\"TBD\"},\"net\":\"2022-03-08T14:06:00Z\",\"window_end\":\"2022-03-08T14:06:00Z\",\"window_start\":\"2022-03-08T14:06:00Z\",\"inhold\":false,\"tbdtime\":false,\"tbddate\":false,\"probability\":null,\"holdreason\":\"\",\"failreason\":\"\",\"hashtag\":null,\"launch_service_provider\":{\"id\":121,\"url\":\"https://ll.thespacedevs.com/2.2.0/agencies/121/\",\"name\":\"SpaceX\",\"type\":\"Commercial\"},\"rocket\":{\"id\":2521,\"configuration\":{\"id\":164,\"launch_library_id\":188,\"url\":\"https://ll.thespacedevs.com/2.2.0/config/launcher/164/\",\"name\":\"Falcon 9\",\"family\":\"Falcon\",\"full_name\":\"Falcon 9 Block 5\",\"variant\":\"Block 5\"}},\"mission\":{\"id\":5957,\"launch_library_id\":null,\"name\":\"Starlink Group 4-10\",\"description\":\"A batch of 46 satellites for Starlink mega-constellation - SpaceX's project for space-based Internet communication system.\",\"launch_designator\":null,\"type\":\"Communications\",\"orbit\":{\"id\":8,\"name\":\"Low Earth Orbit\",\"abbrev\":\"LEO\"}},\"pad\":{\"id\":80,\"url\":\"https://ll.thespacedevs.com/2.2.0/pad/80/\",\"agency_id\":121,\"name\":\"Space Launch Complex 40\",\"info_url\":null,\"wiki_url\":\"https://en.wikipedia.org/wiki/Cape_Canaveral_Air_Force_Station_Space_Launch_Complex_40\",\"map_url\":\"http://maps.google.com/maps?q=28.56194122,-80.57735736\",\"latitude\":\"28.56194122\",\"longitude\":\"-80.57735736\",\"location\":{\"id\":12,\"url\":\"https://ll.thespacedevs.com/2.2.0/location/12/\",\"name\":\"Cape Canaveral, FL, USA\",\"country_code\":\"USA\",\"map_image\":\"https://spacelaunchnow-prod-east.nyc3.digitaloceanspaces.com/media/launch_images/location_12_20200803142519.jpg\",\"total_launch_count\":836,\"total_landing_count\":23},\"map_image\":\"https://spacelaunchnow-prod-east.nyc3.digitaloceanspaces.com/media/launch_images/pad_80_20200803143323.jpg\",\"total_launch_count\":136},\"webcast_live\":false,\"image\":\"https://spacelaunchnow-prod-east.nyc3.digitaloceanspaces.com/media/launch_images/falcon2520925_image_20220221183432.png\",\"infographic\":null,\"program\":[]},{\"id\":\"72188aca-810d-40b9-887d-43040614dd2c\",\"url\":\"https://ll.thespacedevs.com/2.2.0/launch/72188aca-810d-40b9-887d-43040614dd2c/\",\"launch_library_id\":null,\"slug\":\"falcon-9-block-5-starlink-group-4-12\",\"name\":\"Falcon 9 Block 5 | Starlink Group 4-12\",\"status\":{\"id\":2,\"name\":\"TBD\"},\"net\":\"2022-03-15T00:00:00Z\",\"window_end\":\"2022-03-15T00:00:00Z\",\"window_start\":\"2022-03-15T00:00:00Z\",\"inhold\":false,\"tbdtime\":false,\"tbddate\":false,\"probability\":null,\"holdreason\":\"\",\"failreason\":\"\",\"hashtag\":null,\"launch_service_provider\":{\"id\":121,\"url\":\"https://ll.thespacedevs.com/2.2.0/agencies/121/\",\"name\":\"SpaceX\",\"type\":\"Commercial\"},\"rocket\":{\"id\":7535,\"configuration\":{\"id\":164,\"launch_library_id\":188,\"url\":\"https://ll.thespacedevs.com/2.2.0/config/launcher/164/\",\"name\":\"Falcon 9\",\"family\":\"Falcon\",\"full_name\":\"Falcon 9 Block 5\",\"variant\":\"Block 5\"}},\"mission\":{\"id\":5959,\"launch_library_id\":null,\"name\":\"Starlink Group 4-12\",\"description\":\"A batch of 46 satellites for Starlink mega-constellation - SpaceX's project for space-based Internet communication system.\",\"launch_designator\":null,\"type\":\"Communications\",\"orbit\":{\"id\":8,\"name\":\"Low Earth Orbit\",\"abbrev\":\"LEO\"}},\"pad\":{\"id\":80,\"url\":\"https://ll.thespacedevs.com/2.2.0/pad/80/\",\"agency_id\":121,\"name\":\"Space Launch Complex 40\",\"info_url\":null,\"wiki_url\":\"https://en.wikipedia.org/wiki/Cape_Canaveral_Air_Force_Station_Space_Launch_Complex_40\",\"map_url\":\"http://maps.google.com/maps?q=28.56194122,-80.57735736\",\"latitude\":\"28.56194122\",\"longitude\":\"-80.57735736\",\"location\":{\"id\":12,\"url\":\"https://ll.thespacedevs.com/2.2.0/location/12/\",\"name\":\"Cape Canaveral, FL, USA\",\"country_code\":\"USA\",\"map_image\":\"https://spacelaunchnow-prod-east.nyc3.digitaloceanspaces.com/media/launch_images/location_12_20200803142519.jpg\",\"total_launch_count\":836,\"total_landing_count\":23},\"map_image\":\"https://spacelaunchnow-prod-east.nyc3.digitaloceanspaces.com/media/launch_images/pad_80_20200803143323.jpg\",\"total_launch_count\":136},\"webcast_live\":false,\"image\":\"https://spacelaunchnow-prod-east.nyc3.digitaloceanspaces.com/media/launch_images/falcon2520925_image_20220225140920.png\",\"infographic\":null,\"program\":[]},{\"id\":\"dfa56a42-473b-42cf-9348-09fe7ff05f9f\",\"url\":\"https://ll.thespacedevs.com/2.2.0/launch/dfa56a42-473b-42cf-9348-09fe7ff05f9f/\",\"launch_library_id\":null,\"slug\":\"soyuz-21a-soyuz-ms-21\",\"name\":\"Soyuz 2.1a | Soyuz MS-21\",\"status\":{\"id\":1,\"name\":\"Go\"},\"net\":\"2022-03-18T15:55:19Z\",\"window_end\":\"2022-03-18T15:55:19Z\",\"window_start\":\"2022-03-18T15:55:19Z\",\"inhold\":false,\"tbdtime\":false,\"tbddate\":false,\"probability\":null,\"holdreason\":\"\",\"failreason\":\"\",\"hashtag\":null,\"launch_service_provider\":{\"id\":63,\"url\":\"https://ll.thespacedevs.com/2.2.0/agencies/63/\",\"name\":\"Russian Federal Space Agency (ROSCOSMOS)\",\"type\":\"Government\"},\"rocket\":{\"id\":2875,\"configuration\":{\"id\":24,\"launch_library_id\":49,\"url\":\"https://ll.thespacedevs.com/2.2.0/config/launcher/24/\",\"name\":\"Soyuz 2.1a\",\"family\":\"Soyuz\",\"full_name\":\"Soyuz 2.1a\",\"variant\":\"\"}},\"mission\":{\"id\":1289,\"launch_library_id\":null,\"name\":\"Soyuz MS-21\",\"description\":\"Soyuz MS-21 will carry Roscosmos cosmonauts Oleg Artemyev, Denis Matveev and Sergey Korsakov to the International Space Station aboard the Soyuz spacecraft from the Baikonur Cosmodrome in Kazakhstan.\",\"launch_designator\":null,\"type\":\"Human Exploration\",\"orbit\":{\"id\":8,\"name\":\"Low Earth Orbit\",\"abbrev\":\"LEO\"}},\"pad\":{\"id\":20,\"url\":\"https://ll.thespacedevs.com/2.2.0/pad/20/\",\"agency_id\":null,\"name\":\"31/6\",\"info_url\":null,\"wiki_url\":\"https://en.wikipedia.org/wiki/Baikonur_Cosmodrome_Site_31\",\"map_url\":\"http://maps.google.com/maps?q=45.996+N,+63.564+E\",\"latitude\":\"45.996034\",\"longitude\":\"63.564003\",\"location\":{\"id\":15,\"url\":\"https://ll.thespacedevs.com/2.2.0/location/15/\",\"name\":\"Baikonur Cosmodrome, Republic of Kazakhstan\",\"country_code\":\"KAZ\",\"map_image\":\"https://spacelaunchnow-prod-east.nyc3.digitaloceanspaces.com/media/launch_images/location_15_20200803142517.jpg\",\"total_launch_count\":1530,\"total_landing_count\":0},\"map_image\":\"https://spacelaunchnow-prod-east.nyc3.digitaloceanspaces.com/media/launch_images/pad_20_20200803143516.jpg\",\"total_launch_count\":400},\"webcast_live\":false,\"image\":\"https://spacelaunchnow-prod-east.nyc3.digitaloceanspaces.com/media/launcher_images/soyuz_2.1a_image_20201013143850.jpg\",\"infographic\":null,\"program\":[{\"id\":8,\"url\":\"https://ll.thespacedevs.com/2.2.0/program/8/\",\"name\":\"Soyuz\",\"description\":\"The Soyuz programme is a human spaceflight programme initiated by the Soviet Union in the early 1960s. The Soyuz spacecraft was originally part of a Moon landing project intended to put a Soviet cosmonaut on the Moon. It was the third Soviet human spaceflight programme after the Vostok and Voskhod programmes.\",\"agencies\":[{\"id\":63,\"url\":\"https://ll.thespacedevs.com/2.2.0/agencies/63/\",\"name\":\"Russian Federal Space Agency (ROSCOSMOS)\",\"type\":\"Government\"},{\"id\":66,\"url\":\"https://ll.thespacedevs.com/2.2.0/agencies/66/\",\"name\":\"Soviet Space Program\",\"type\":\"Government\"}],\"image_url\":\"https://spacelaunchnow-prod-east.nyc3.digitaloceanspaces.com/media/program_images/soyuz_program_20201129185543.png\",\"start_date\":\"1966-11-28T11:02:00Z\",\"end_date\":null,\"info_url\":null,\"wiki_url\":\"https://en.wikipedia.org/wiki/Soyuz_programme\"},{\"id\":17,\"url\":\"https://ll.thespacedevs.com/2.2.0/program/17/\",\"name\":\"International Space Station\",\"description\":\"The International Space Station programme is tied together by a complex set of legal, political and financial agreements between the sixteen nations involved in the project, governing ownership of the various components, rights to crewing and utilization, and responsibilities for crew rotation and resupply of the International Space Station. It was conceived in 1984 by President Ronald Reagan, during the Space Station Freedom project as it was originally called.\",\"agencies\":[{\"id\":16,\"url\":\"https://ll.thespacedevs.com/2.2.0/agencies/16/\",\"name\":\"Canadian Space Agency\",\"type\":\"Government\"},{\"id\":27,\"url\":\"https://ll.thespacedevs.com/2.2.0/agencies/27/\",\"name\":\"European Space Agency\",\"type\":\"Multinational\"},{\"id\":37,\"url\":\"https://ll.thespacedevs.com/2.2.0/agencies/37/\",\"name\":\"Japan Aerospace Exploration Agency\",\"type\":\"Government\"},{\"id\":44,\"url\":\"https://ll.thespacedevs.com/2.2.0/agencies/44/\",\"name\":\"National Aeronautics and Space Administration\",\"type\":\"Government\"},{\"id\":63,\"url\":\"https://ll.thespacedevs.com/2.2.0/agencies/63/\",\"name\":\"Russian Federal Space Agency (ROSCOSMOS)\",\"type\":\"Government\"}],\"image_url\":\"https://spacelaunchnow-prod-east.nyc3.digitaloceanspaces.com/media/program_images/international2_program_20201129184745.png\",\"start_date\":\"1998-11-20T06:40:00Z\",\"end_date\":null,\"info_url\":\"https://www.nasa.gov/mission_pages/station/main/index.html\",\"wiki_url\":\"https://en.wikipedia.org/wiki/International_Space_Station_programme\"}]},{\"id\":\"a3eeb03b-a209-4255-91b5-772dc0d2150e\",\"url\":\"https://ll.thespacedevs.com/2.2.0/launch/a3eeb03b-a209-4255-91b5-772dc0d2150e/\",\"launch_library_id\":2048,\"slug\":\"falcon-9-block-5-axiom-space-mission-1\",\"name\":\"Falcon 9 Block 5 | Axiom Space Mission 1\",\"status\":{\"id\":2,\"name\":\"TBD\"},\"net\":\"2022-03-30T18:46:00Z\",\"window_end\":\"2022-03-30T18:46:00Z\",\"window_start\":\"2022-03-30T18:46:00Z\",\"inhold\":false,\"tbdtime\":false,\"tbddate\":false,\"probability\":-1,\"holdreason\":\"\",\"failreason\":\"\",\"hashtag\":null,\"launch_service_provider\":{\"id\":121,\"url\":\"https://ll.thespacedevs.com/2.2.0/agencies/121/\",\"name\":\"SpaceX\",\"type\":\"Commercial\"},\"rocket\":{\"id\":2693,\"configuration\":{\"id\":164,\"launch_library_id\":188,\"url\":\"https://ll.thespacedevs.com/2.2.0/config/launcher/164/\",\"name\":\"Falcon 9\",\"family\":\"Falcon\",\"full_name\":\"Falcon 9 Block 5\",\"variant\":\"Block 5\"}},\"mission\":{\"id\":1099,\"launch_library_id\":1296,\"name\":\"Axiom Space Mission 1\",\"description\":\"This is a Crew Dragon flight for a private company Axiom Space. The mission will carry a commander professionally trained by Axiom alongside three private astronauts to and from the International Space Station. This crew will stay aboard space station for  at least eight days.\",\"launch_designator\":null,\"type\":\"Tourism\",\"orbit\":{\"id\":8,\"name\":\"Low Earth Orbit\",\"abbrev\":\"LEO\"}},\"pad\":{\"id\":87,\"url\":\"https://ll.thespacedevs.com/2.2.0/pad/87/\",\"agency_id\":null,\"name\":\"Launch Complex 39A\",\"info_url\":null,\"wiki_url\":\"https://en.wikipedia.org/wiki/Kennedy_Space_Center_Launch_Complex_39#Launch_Pad_39A\",\"map_url\":\"http://maps.google.com/maps?q=28.608+N,+80.604+W\",\"latitude\":\"28.60822681\",\"longitude\":\"-80.60428186\",\"location\":{\"id\":27,\"url\":\"https://ll.thespacedevs.com/2.2.0/location/27/\",\"name\":\"Kennedy Space Center, FL, USA\",\"country_code\":\"USA\",\"map_image\":\"https://spacelaunchnow-prod-east.nyc3.digitaloceanspaces.com/media/launch_images/location_27_20200803142447.jpg\",\"total_launch_count\":197,\"total_landing_count\":0},\"map_image\":\"https://spacelaunchnow-prod-east.nyc3.digitaloceanspaces.com/media/launch_images/pad_87_20200803143537.jpg\",\"total_launch_count\":140},\"webcast_live\":false,\"image\":\"https://spacelaunchnow-prod-east.nyc3.digitaloceanspaces.com/media/launch_images/falcon2520925_image_20210310075447.jpeg\",\"infographic\":null,\"program\":[]},{\"id\":\"1c2b383b-0ac0-458a-9b03-9723c64dd392\",\"url\":\"https://ll.thespacedevs.com/2.2.0/launch/1c2b383b-0ac0-458a-9b03-9723c64dd392/\",\"launch_library_id\":null,\"slug\":\"long-march-7-tianzhou-4\",\"name\":\"Long March 7  | Tianzhou-4\",\"status\":{\"id\":2,\"name\":\"TBD\"},\"net\":\"2022-03-31T00:00:00Z\",\"window_end\":\"2022-03-31T00:00:00Z\",\"window_start\":\"2022-03-31T00:00:00Z\",\"inhold\":false,\"tbdtime\":false,\"tbddate\":false,\"probability\":null,\"holdreason\":\"\",\"failreason\":\"\",\"hashtag\":null,\"launch_service_provider\":{\"id\":88,\"url\":\"https://ll.thespacedevs.com/2.2.0/agencies/88/\",\"name\":\"China Aerospace Science and Technology Corporation\",\"type\":\"Government\"},\"rocket\":{\"id\":2865,\"configuration\":{\"id\":100,\"launch_library_id\":130,\"url\":\"https://ll.thespacedevs.com/2.2.0/config/launcher/100/\",\"name\":\"Long March 7\",\"family\":\"Long March 7\",\"full_name\":\"Long March 7\",\"variant\":\"\"}},\"mission\":{\"id\":1281,\"launch_library_id\":null,\"name\":\"Tianzhou-4\",\"description\":\"Third cargo delivery mission to the Chinese large modular space station.\",\"launch_designator\":null,\"type\":\"Resupply\",\"orbit\":{\"id\":8,\"name\":\"Low Earth Orbit\",\"abbrev\":\"LEO\"}},\"pad\":{\"id\":78,\"url\":\"https://ll.thespacedevs.com/2.2.0/pad/78/\",\"agency_id\":null,\"name\":\"Wenchang\",\"info_url\":null,\"wiki_url\":\"https://en.wikipedia.org/wiki/Wenchang_Satellite_Launch_Center\",\"map_url\":\"http://maps.google.com/maps?q=19.614354,110.951057\",\"latitude\":\"19.614354\",\"longitude\":\"110.951057\",\"location\":{\"id\":8,\"url\":\"https://ll.thespacedevs.com/2.2.0/location/8/\",\"name\":\"Wenchang Satellite Launch Center, People's Republic of China\",\"country_code\":\"CHN\",\"map_image\":\"https://spacelaunchnow-prod-east.nyc3.digitaloceanspaces.com/media/launch_images/location_8_20200803142445.jpg\",\"total_launch_count\":16,\"total_landing_count\":0},\"map_image\":\"https://spacelaunchnow-prod-east.nyc3.digitaloceanspaces.com/media/launch_images/pad_78_20200803143548.jpg\",\"total_launch_count\":12},\"webcast_live\":false,\"image\":\"https://spacelaunchnow-prod-east.nyc3.digitaloceanspaces.com/media/launcher_images/long_march_7_image_20210513083007.jpeg\",\"infographic\":null,\"program\":[{\"id\":19,\"url\":\"https://ll.thespacedevs.com/2.2.0/program/19/\",\"name\":\"Tiangong space station\",\"description\":\"The Tiangong space station is a space station placed in Low Earth orbit between 340 and 450 km above the surface.\",\"agencies\":[{\"id\":88,\"url\":\"https://ll.thespacedevs.com/2.2.0/agencies/88/\",\"name\":\"China Aerospace Science and Technology Corporation\",\"type\":\"Government\"}],\"image_url\":\"https://spacelaunchnow-prod-east.nyc3.digitaloceanspaces.com/media/program_images/chinese2520spa_program_20210608105528.png\",\"start_date\":\"2021-04-29T03:23:00Z\",\"end_date\":null,\"info_url\":null,\"wiki_url\":\"https://en.wikipedia.org/wiki/Tiangong_space_station\"}]},{\"id\":\"25d652f7-7e20-42d5-967e-b8e01305746c\",\"url\":\"https://ll.thespacedevs.com/2.2.0/launch/25d652f7-7e20-42d5-967e-b8e01305746c/\",\"launch_library_id\":1685,\"slug\":\"terran-1-maiden-flight\",\"name\":\"Terran 1 | Maiden Flight\",\"status\":{\"id\":2,\"name\":\"TBD\"},\"net\":\"2022-03-31T00:00:00Z\",\"window_end\":\"2022-03-31T00:00:00Z\",\"window_start\":\"2022-03-31T00:00:00Z\",\"inhold\":false,\"tbdtime\":true,\"tbddate\":true,\"probability\":-1,\"holdreason\":\"\",\"failreason\":\"\",\"hashtag\":null,\"launch_service_provider\":{\"id\":266,\"url\":\"https://ll.thespacedevs.com/2.2.0/agencies/266/\",\"name\":\"Relativity Space\",\"type\":null},\"rocket\":{\"id\":2212,\"configuration\":{\"id\":180,\"launch_library_id\":217,\"url\":\"https://ll.thespacedevs.com/2.2.0/config/launcher/180/\",\"name\":\"Terran 1\",\"family\":\"Terran\",\"full_name\":\"Terran 1\",\"variant\":\"1\"}},\"mission\":{\"id\":969,\"launch_library_id\":1181,\"name\":\"Good Luck, Have Fun\",\"description\":\"Maiden launch of the Terran 1 rocket developed by Relativity Space.\",\"launch_designator\":null,\"type\":\"Test Flight\",\"orbit\":{\"id\":8,\"name\":\"Low Earth Orbit\",\"abbrev\":\"LEO\"}},\"pad\":{\"id\":92,\"url\":\"https://ll.thespacedevs.com/2.2.0/pad/92/\",\"agency_id\":161,\"name\":\"Launch Complex 16\",\"info_url\":null,\"wiki_url\":\"https://en.wikipedia.org/wiki/Cape_Canaveral_Air_Force_Station_Launch_Complex_16\",\"map_url\":\"http://www.google.com/maps?q=28.501626,-80.5518\",\"latitude\":\"28.501626\",\"longitude\":\"-80.5518\",\"location\":{\"id\":12,\"url\":\"https://ll.thespacedevs.com/2.2.0/location/12/\",\"name\":\"Cape Canaveral, FL, USA\",\"country_code\":\"USA\",\"map_image\":\"https://spacelaunchnow-prod-east.nyc3.digitaloceanspaces.com/media/launch_images/location_12_20200803142519.jpg\",\"total_launch_count\":836,\"total_landing_count\":23},\"map_image\":\"https://spacelaunchnow-prod-east.nyc3.digitaloceanspaces.com/media/launch_images/pad_92_20200803143523.jpg\",\"total_launch_count\":0},\"webcast_live\":false,\"image\":\"https://spacelaunchnow-prod-east.nyc3.digitaloceanspaces.com/media/launcher_images/terran_1_image_20220129191632.jpg\",\"infographic\":null,\"program\":[]},{\"id\":\"5336dd45-9773-463b-acda-2a633b725d94\",\"url\":\"https://ll.thespacedevs.com/2.2.0/launch/5336dd45-9773-463b-acda-2a633b725d94/\",\"launch_library_id\":1611,\"slug\":\"sslv-eos-02-microsat-2a-demo-1\",\"name\":\"SSLV | EOS-02 (Microsat-2A) (Demo 1)\",\"status\":{\"id\":2,\"name\":\"TBD\"},\"net\":\"2022-03-31T00:00:00Z\",\"window_end\":\"2022-03-31T00:00:00Z\",\"window_start\":\"2022-03-31T00:00:00Z\",\"inhold\":false,\"tbdtime\":true,\"tbddate\":true,\"probability\":-1,\"holdreason\":\"\",\"failreason\":\"\",\"hashtag\":null,\"launch_service_provider\":{\"id\":31,\"url\":\"https://ll.thespacedevs.com/2.2.0/agencies/31/\",\"name\":\"Indian Space Research Organization\",\"type\":\"Government\"},\"rocket\":{\"id\":104,\"configuration\":{\"id\":150,\"launch_library_id\":189,\"url\":\"https://ll.thespacedevs.com/2.2.0/config/launcher/150/\",\"name\":\"SSLV\",\"family\":\"\",\"full_name\":\"SSLV\",\"variant\":\"\"}},\"mission\":{\"id\":683,\"launch_library_id\":855,\"name\":\"SSLV Demo 1\",\"description\":\"First test flight of Indian SSLV (Small Satellite Launch Vehicle).\",\"launch_designator\":null,\"type\":\"Test Flight\",\"orbit\":{\"id\":8,\"name\":\"Low Earth Orbit\",\"abbrev\":\"LEO\"}},\"pad\":{\"id\":50,\"url\":\"https://ll.thespacedevs.com/2.2.0/pad/50/\",\"agency_id\":31,\"name\":\"Satish Dhawan Space Centre First Launch Pad\",\"info_url\":null,\"wiki_url\":\"https://en.wikipedia.org/wiki/Satish_Dhawan_Space_Centre_First_Launch_Pad\",\"map_url\":\"https://www.google.com/maps?q=13.733,80.235\",\"latitude\":\"13.733\",\"longitude\":\"80.235\",\"location\":{\"id\":14,\"url\":\"https://ll.thespacedevs.com/2.2.0/location/14/\",\"name\":\"Sriharikota, Republic of India\",\"country_code\":\"IND\",\"map_image\":\"https://spacelaunchnow-prod-east.nyc3.digitaloceanspaces.com/media/launch_images/location_14_20200803142403.jpg\",\"total_launch_count\":79,\"total_landing_count\":0},\"map_image\":\"https://spacelaunchnow-prod-east.nyc3.digitaloceanspaces.com/media/launch_images/pad_50_20200803143457.jpg\",\"total_launch_count\":51},\"webcast_live\":false,\"image\":\"https://spacelaunchnow-prod-east.nyc3.digitaloceanspaces.com/media/launcher_images/sslv_image_20190830213312.jpg\",\"infographic\":null,\"program\":[]},{\"id\":\"66cccc8f-ed96-4b28-888c-33124c4ea892\",\"url\":\"https://ll.thespacedevs.com/2.2.0/launch/66cccc8f-ed96-4b28-888c-33124c4ea892/\",\"launch_library_id\":null,\"slug\":\"astra-rocket-3-s4-crossover\",\"name\":\"Astra Rocket 3 | S4 CROSSOVER\",\"status\":{\"id\":2,\"name\":\"TBD\"},\"net\":\"2022-03-31T00:00:00Z\",\"window_end\":\"2022-03-31T00:00:00Z\",\"window_start\":\"2022-03-31T00:00:00Z\",\"inhold\":false,\"tbdtime\":false,\"tbddate\":false,\"probability\":null,\"holdreason\":\"\",\"failreason\":\"\",\"hashtag\":null,\"launch_service_provider\":{\"id\":285,\"url\":\"https://ll.thespacedevs.com/2.2.0/agencies/285/\",\"name\":\"Astra Space\",\"type\":\"Commercial\"},\"rocket\":{\"id\":7520,\"configuration\":{\"id\":213,\"launch_library_id\":243,\"url\":\"https://ll.thespacedevs.com/2.2.0/config/launcher/213/\",\"name\":\"Astra Rocket 3\",\"family\":\"Astra Rocket\",\"full_name\":\"Astra Rocket 3\",\"variant\":\"3\"}},\"mission\":{\"id\":5938,\"launch_library_id\":null,\"name\":\"S4 CROSSOVER\",\"description\":\"The goal of the S4 CROSSOVER mission, is to obtain flight heritage testing for a prototype payload host platform. Features that will be tested for use in supporting future payloads, include a\\r\\nGlobalstar transmitter and an Iridium transceiver, as well space environmental instruments to characterize the radiation and plasma densities to which the payloads will be exposed. S4 CROSSOVER is self powered and operates independently of the larger Astra launch vehicle second stage to which it is permanently attached.\",\"launch_designator\":null,\"type\":\"Technology\",\"orbit\":{\"id\":17,\"name\":\"Sun-Synchronous Orbit\",\"abbrev\":\"SSO\"}},\"pad\":{\"id\":114,\"url\":\"https://ll.thespacedevs.com/2.2.0/pad/114/\",\"agency_id\":null,\"name\":\"Launch Pad 3B\",\"info_url\":null,\"wiki_url\":\"https://en.wikipedia.org/wiki/Pacific_Spaceport_Complex_%E2%80%93_Alaska\",\"map_url\":\"https://www.google.ee/maps/search/57.430673,-152.353077\",\"latitude\":\"57.430673\",\"longitude\":\"-152.353077\",\"location\":{\"id\":25,\"url\":\"https://ll.thespacedevs.com/2.2.0/location/25/\",\"name\":\"Pacific Spaceport Complex, Alaska, USA\",\"country_code\":\"USA\",\"map_image\":\"https://spacelaunchnow-prod-east.nyc3.digitaloceanspaces.com/media/launch_images/location_25_20200803142500.jpg\",\"total_launch_count\":7,\"total_landing_count\":0},\"map_image\":\"https://spacelaunchnow-prod-east.nyc3.digitaloceanspaces.com/media/launch_images/pad_114_20200803145248.jpg\",\"total_launch_count\":4},\"webcast_live\":false,\"image\":\"https://spacelaunchnow-prod-east.nyc3.digitaloceanspaces.com/media/launcher_images/astra_rocket_3_image_20211012141057.jpg\",\"infographic\":null,\"program\":[]}]}"